Lab 5: Data wrangling and graphing COVID-19 reporting data (Part 2)
…
## `summarise()` regrouping output by 'Province_State' (override with `.groups` argument)

Confirmed_State_9_13

## # A tibble: 58 x 3
## # Groups:   Province_State [58]
##    Province_State       Country_Region Confirmed
##    <chr>                <chr>              <dbl>
##  1 Alabama              US                138755
##  2 Alaska               US                  6268
##  3 Arizona              US                208512
##  4 Arkansas             US                 70219
##  5 California           US                761728
##  6 Colorado             US                 61293
##  7 Connecticut          US                 54326
##  8 Delaware             US                 18849
##  9 Diamond Princess     US                    49
## 10 District of Columbia US                 14592
## # ... with 48 more rows
…
